Copyright 1986-2018 Xilinx, Inc. All Rights Reserved.
-----------------------------------------------------------------------------------------------------------------------------------------------------------------------------------
| Tool Version : Vivado v.2018.2 (win64) Build 2258646 Thu Jun 14 20:03:12 MDT 2018
| Date         : Sun Nov 15 21:33:24 2020
| Host         : DESKTOP-TPTN6HT running 64-bit major release  (build 9200)
| Command      : report_methodology -file Oscilloscope_v1_methodology_drc_routed.rpt -pb Oscilloscope_v1_methodology_drc_routed.pb -rpx Oscilloscope_v1_methodology_drc_routed.rpx
| Design       : Oscilloscope_v1
| Device       : xc7a100tcsg324-3
| Speed File   : -3
| Design State : Routed
-----------------------------------------------------------------------------------------------------------------------------------------------------------------------------------

Report Methodology

Table of Contents
-----------------
1. REPORT SUMMARY
2. REPORT DETAILS

1. REPORT SUMMARY
-----------------
            Netlist: netlist
          Floorplan: design_1
      Design limits: <entire design considered>
             Max violations: <unlimited>
             Violations found: 124
+-----------+----------+------------------------------------------------+------------+
| Rule      | Severity | Description                                    | Violations |
+-----------+----------+------------------------------------------------+------------+
| SYNTH-9   | Warning  | Small multiplier                               | 2          |
| SYNTH-11  | Warning  | DSP output not registered                      | 2          |
| SYNTH-13  | Warning  | combinational multiplier                       | 4          |
| TIMING-6  | Warning  | No common primary clock between related clocks | 2          |
| TIMING-16 | Warning  | Large setup violation                          | 114        |
+-----------+----------+------------------------------------------------+------------+

2. REPORT DETAILS
-----------------
SYNTH-9#1 Warning
Small multiplier  
Detected multiplier at mySamplePeriodToTimePerDivision/timePerDivision_reg[5]_i_1 of size 7x4, it is implemented as LUTs due to its small size. To force the multiplier onto a DSP block, use the USE_DSP48 attribute.
Related violations: <none>

SYNTH-9#2 Warning
Small multiplier  
Detected multiplier at mySamplePeriodToTimePerDivision/timePerDivision_reg[9]_i_1 of size 7x4, it is implemented as LUTs due to its small size. To force the multiplier onto a DSP block, use the USE_DSP48 attribute.
Related violations: <none>

SYNTH-11#1 Warning
DSP output not registered  
DSP instance level1 is not fully pipelined on the output side. MREG/PREG are not used.
Related violations: <none>

SYNTH-11#2 Warning
DSP output not registered  
DSP instance level4 is not fully pipelined on the output side. MREG/PREG are not used.
Related violations: <none>

SYNTH-13#1 Warning
combinational multiplier  
Detected combinational multiplier in DSP instance curveChannel1/bigMult.
Related violations: <none>

SYNTH-13#2 Warning
combinational multiplier  
Detected combinational multiplier in DSP instance curveChannel2/bigMult.
Related violations: <none>

SYNTH-13#3 Warning
combinational multiplier  
Detected combinational multiplier in DSP instance level1.
Related violations: <none>

SYNTH-13#4 Warning
combinational multiplier  
Detected combinational multiplier in DSP instance level4.
Related violations: <none>

TIMING-6#1 Warning
No common primary clock between related clocks  
The clocks clk_out1_clk_wiz_0 and clk_out1_clk_wiz_0_1 are related (timed together) but they have no common primary clock. The design could fail in hardware. To find a timing path between these clocks, run the following command: report_timing -from [get_clocks clk_out1_clk_wiz_0] -to [get_clocks clk_out1_clk_wiz_0_1]
Related violations: <none>

TIMING-6#2 Warning
No common primary clock between related clocks  
The clocks clk_out1_clk_wiz_0_1 and clk_out1_clk_wiz_0 are related (timed together) but they have no common primary clock. The design could fail in hardware. To find a timing path between these clocks, run the following command: report_timing -from [get_clocks clk_out1_clk_wiz_0_1] -to [get_clocks clk_out1_clk_wiz_0]
Related violations: <none>

TIMING-16#1 Warning
Large setup violation  
There is a large setup violation of -1.007 ns between myText/displayX1_reg[7]/C (clocked by clk_out1_clk_wiz_0_1) and myText/addressA_reg[13]/D (clocked by clk_out1_clk_wiz_0). Large setup violations at the end of those stages might be difficult to fix during the post-placement implementation flow and could be the result of non-optimal XDC constraints or non-optimal design architecture
Related violations: <none>

TIMING-16#2 Warning
Large setup violation  
There is a large setup violation of -1.031 ns between myGrid/gridDisplayX_reg[10]_rep__0/C (clocked by clk_out1_clk_wiz_0) and xyc/pixelRows_reg[0][908]/D (clocked by clk_out1_clk_wiz_0). Large setup violations at the end of those stages might be difficult to fix during the post-placement implementation flow and could be the result of non-optimal XDC constraints or non-optimal design architecture
Related violations: <none>

TIMING-16#3 Warning
Large setup violation  
There is a large setup violation of -1.041 ns between myText/displayX1_reg[7]/C (clocked by clk_out1_clk_wiz_0_1) and myText/addressA_reg[14]/CE (clocked by clk_out1_clk_wiz_0). Large setup violations at the end of those stages might be difficult to fix during the post-placement implementation flow and could be the result of non-optimal XDC constraints or non-optimal design architecture
Related violations: <none>

TIMING-16#4 Warning
Large setup violation  
There is a large setup violation of -1.081 ns between myText/displayX1_reg[7]/C (clocked by clk_out1_clk_wiz_0_1) and myText/addressA_reg[15]/CE (clocked by clk_out1_clk_wiz_0). Large setup violations at the end of those stages might be difficult to fix during the post-placement implementation flow and could be the result of non-optimal XDC constraints or non-optimal design architecture
Related violations: <none>

TIMING-16#5 Warning
Large setup violation  
There is a large setup violation of -1.081 ns between myText/displayX1_reg[7]/C (clocked by clk_out1_clk_wiz_0_1) and myText/addressA_reg[16]/CE (clocked by clk_out1_clk_wiz_0). Large setup violations at the end of those stages might be difficult to fix during the post-placement implementation flow and could be the result of non-optimal XDC constraints or non-optimal design architecture
Related violations: <none>

TIMING-16#6 Warning
Large setup violation  
There is a large setup violation of -1.081 ns between myText/displayX1_reg[7]/C (clocked by clk_out1_clk_wiz_0_1) and myText/addressA_reg[2]/CE (clocked by clk_out1_clk_wiz_0). Large setup violations at the end of those stages might be difficult to fix during the post-placement implementation flow and could be the result of non-optimal XDC constraints or non-optimal design architecture
Related violations: <none>

TIMING-16#7 Warning
Large setup violation  
There is a large setup violation of -1.082 ns between myText/displayX1_reg[2]/C (clocked by clk_out1_clk_wiz_0_1) and myText/addressA_reg[10]/D (clocked by clk_out1_clk_wiz_0). Large setup violations at the end of those stages might be difficult to fix during the post-placement implementation flow and could be the result of non-optimal XDC constraints or non-optimal design architecture
Related violations: <none>

TIMING-16#8 Warning
Large setup violation  
There is a large setup violation of -1.087 ns between myText/displayX1_reg[7]/C (clocked by clk_out1_clk_wiz_0_1) and myText/addressA_reg[0]/CE (clocked by clk_out1_clk_wiz_0). Large setup violations at the end of those stages might be difficult to fix during the post-placement implementation flow and could be the result of non-optimal XDC constraints or non-optimal design architecture
Related violations: <none>

TIMING-16#9 Warning
Large setup violation  
There is a large setup violation of -1.087 ns between myText/displayX1_reg[7]/C (clocked by clk_out1_clk_wiz_0_1) and myText/addressA_reg[3]/CE (clocked by clk_out1_clk_wiz_0). Large setup violations at the end of those stages might be difficult to fix during the post-placement implementation flow and could be the result of non-optimal XDC constraints or non-optimal design architecture
Related violations: <none>

TIMING-16#10 Warning
Large setup violation  
There is a large setup violation of -1.107 ns between myGrid/gridDisplayX_reg[10]_rep__0/C (clocked by clk_out1_clk_wiz_0) and xyc/pixelRows_reg[1][747]/D (clocked by clk_out1_clk_wiz_0). Large setup violations at the end of those stages might be difficult to fix during the post-placement implementation flow and could be the result of non-optimal XDC constraints or non-optimal design architecture
Related violations: <none>

TIMING-16#11 Warning
Large setup violation  
There is a large setup violation of -1.110 ns between myText/displayX1_reg[2]/C (clocked by clk_out1_clk_wiz_0_1) and myText/addressA_reg[14]/D (clocked by clk_out1_clk_wiz_0). Large setup violations at the end of those stages might be difficult to fix during the post-placement implementation flow and could be the result of non-optimal XDC constraints or non-optimal design architecture
Related violations: <none>

TIMING-16#12 Warning
Large setup violation  
There is a large setup violation of -1.124 ns between myText/displayX1_reg[2]/C (clocked by clk_out1_clk_wiz_0_1) and myText/addressA_reg[1]/D (clocked by clk_out1_clk_wiz_0). Large setup violations at the end of those stages might be difficult to fix during the post-placement implementation flow and could be the result of non-optimal XDC constraints or non-optimal design architecture
Related violations: <none>

TIMING-16#13 Warning
Large setup violation  
There is a large setup violation of -1.138 ns between myText/displayX1_reg[7]/C (clocked by clk_out1_clk_wiz_0_1) and myText/addressA_reg[10]/CE (clocked by clk_out1_clk_wiz_0). Large setup violations at the end of those stages might be difficult to fix during the post-placement implementation flow and could be the result of non-optimal XDC constraints or non-optimal design architecture
Related violations: <none>

TIMING-16#14 Warning
Large setup violation  
There is a large setup violation of -1.142 ns between level4/CLK (clocked by clk_out1_clk_wiz_0_1) and mytls/pixel_reg[11]/S (clocked by clk_out1_clk_wiz_0). Large setup violations at the end of those stages might be difficult to fix during the post-placement implementation flow and could be the result of non-optimal XDC constraints or non-optimal design architecture
Related violations: <none>

TIMING-16#15 Warning
Large setup violation  
There is a large setup violation of -1.142 ns between level4/CLK (clocked by clk_out1_clk_wiz_0_1) and mytls/pixel_reg[3]/R (clocked by clk_out1_clk_wiz_0). Large setup violations at the end of those stages might be difficult to fix during the post-placement implementation flow and could be the result of non-optimal XDC constraints or non-optimal design architecture
Related violations: <none>

TIMING-16#16 Warning
Large setup violation  
There is a large setup violation of -1.142 ns between level4/CLK (clocked by clk_out1_clk_wiz_0_1) and mytls/pixel_reg[6]/R (clocked by clk_out1_clk_wiz_0). Large setup violations at the end of those stages might be difficult to fix during the post-placement implementation flow and could be the result of non-optimal XDC constraints or non-optimal design architecture
Related violations: <none>

TIMING-16#17 Warning
Large setup violation  
There is a large setup violation of -1.142 ns between level4/CLK (clocked by clk_out1_clk_wiz_0_1) and mytls/pixel_reg[7]/R (clocked by clk_out1_clk_wiz_0). Large setup violations at the end of those stages might be difficult to fix during the post-placement implementation flow and could be the result of non-optimal XDC constraints or non-optimal design architecture
Related violations: <none>

TIMING-16#18 Warning
Large setup violation  
There is a large setup violation of -1.143 ns between myGrid/gridDisplayX_reg[3]/C (clocked by clk_out1_clk_wiz_0_1) and xyc/pixelRows_reg[0][1169]/D (clocked by clk_out1_clk_wiz_0). Large setup violations at the end of those stages might be difficult to fix during the post-placement implementation flow and could be the result of non-optimal XDC constraints or non-optimal design architecture
Related violations: <none>

TIMING-16#19 Warning
Large setup violation  
There is a large setup violation of -1.145 ns between myText/displayX1_reg[7]/C (clocked by clk_out1_clk_wiz_0_1) and myText/addressA_reg[11]/D (clocked by clk_out1_clk_wiz_0). Large setup violations at the end of those stages might be difficult to fix during the post-placement implementation flow and could be the result of non-optimal XDC constraints or non-optimal design architecture
Related violations: <none>

TIMING-16#20 Warning
Large setup violation  
There is a large setup violation of -1.147 ns between myGrid/gridDisplayX_reg[10]_rep__0/C (clocked by clk_out1_clk_wiz_0) and xyc/pixelRows_reg[0][619]/D (clocked by clk_out1_clk_wiz_0_1). Large setup violations at the end of those stages might be difficult to fix during the post-placement implementation flow and could be the result of non-optimal XDC constraints or non-optimal design architecture
Related violations: <none>

TIMING-16#21 Warning
Large setup violation  
There is a large setup violation of -1.157 ns between myText/displayX1_reg[7]/C (clocked by clk_out1_clk_wiz_0_1) and myText/addressA_reg[13]/CE (clocked by clk_out1_clk_wiz_0). Large setup violations at the end of those stages might be difficult to fix during the post-placement implementation flow and could be the result of non-optimal XDC constraints or non-optimal design architecture
Related violations: <none>

TIMING-16#22 Warning
Large setup violation  
There is a large setup violation of -1.167 ns between myGrid/gridDisplayX_reg[3]/C (clocked by clk_out1_clk_wiz_0_1) and xyc/pixelRows_reg[0][1041]/D (clocked by clk_out1_clk_wiz_0). Large setup violations at the end of those stages might be difficult to fix during the post-placement implementation flow and could be the result of non-optimal XDC constraints or non-optimal design architecture
Related violations: <none>

TIMING-16#23 Warning
Large setup violation  
There is a large setup violation of -1.167 ns between myText/displayX1_reg[7]/C (clocked by clk_out1_clk_wiz_0_1) and myText/addressA_reg[7]/CE (clocked by clk_out1_clk_wiz_0). Large setup violations at the end of those stages might be difficult to fix during the post-placement implementation flow and could be the result of non-optimal XDC constraints or non-optimal design architecture
Related violations: <none>

TIMING-16#24 Warning
Large setup violation  
There is a large setup violation of -1.188 ns between level4/CLK (clocked by clk_out1_clk_wiz_0_1) and mytls/pixel_reg[1]/R (clocked by clk_out1_clk_wiz_0). Large setup violations at the end of those stages might be difficult to fix during the post-placement implementation flow and could be the result of non-optimal XDC constraints or non-optimal design architecture
Related violations: <none>

TIMING-16#25 Warning
Large setup violation  
There is a large setup violation of -1.188 ns between level4/CLK (clocked by clk_out1_clk_wiz_0_1) and mytls/pixel_reg[5]/R (clocked by clk_out1_clk_wiz_0). Large setup violations at the end of those stages might be difficult to fix during the post-placement implementation flow and could be the result of non-optimal XDC constraints or non-optimal design architecture
Related violations: <none>

TIMING-16#26 Warning
Large setup violation  
There is a large setup violation of -1.188 ns between level4/CLK (clocked by clk_out1_clk_wiz_0_1) and mytls/pixel_reg[9]/S (clocked by clk_out1_clk_wiz_0). Large setup violations at the end of those stages might be difficult to fix during the post-placement implementation flow and could be the result of non-optimal XDC constraints or non-optimal design architecture
Related violations: <none>

TIMING-16#27 Warning
Large setup violation  
There is a large setup violation of -1.197 ns between myGrid/gridDisplayX_reg[10]_rep__0/C (clocked by clk_out1_clk_wiz_0) and xyc/pixelRows_reg[1][413]/D (clocked by clk_out1_clk_wiz_0). Large setup violations at the end of those stages might be difficult to fix during the post-placement implementation flow and could be the result of non-optimal XDC constraints or non-optimal design architecture
Related violations: <none>

TIMING-16#28 Warning
Large setup violation  
There is a large setup violation of -1.198 ns between myGrid/gridDisplayX_reg[3]/C (clocked by clk_out1_clk_wiz_0_1) and xyc/pixelRows_reg[0][147]/D (clocked by clk_out1_clk_wiz_0). Large setup violations at the end of those stages might be difficult to fix during the post-placement implementation flow and could be the result of non-optimal XDC constraints or non-optimal design architecture
Related violations: <none>

TIMING-16#29 Warning
Large setup violation  
There is a large setup violation of -1.212 ns between cursor2Line/spriteDisplayX_reg[7]__0/C (clocked by clk_out1_clk_wiz_0_1) and myText/column_reg[3]/R (clocked by clk_out1_clk_wiz_0). Large setup violations at the end of those stages might be difficult to fix during the post-placement implementation flow and could be the result of non-optimal XDC constraints or non-optimal design architecture
Related violations: <none>

TIMING-16#30 Warning
Large setup violation  
There is a large setup violation of -1.212 ns between cursor2Line/spriteDisplayX_reg[7]__0/C (clocked by clk_out1_clk_wiz_0_1) and myText/column_reg[4]/R (clocked by clk_out1_clk_wiz_0). Large setup violations at the end of those stages might be difficult to fix during the post-placement implementation flow and could be the result of non-optimal XDC constraints or non-optimal design architecture
Related violations: <none>

TIMING-16#31 Warning
Large setup violation  
There is a large setup violation of -1.214 ns between myText/displayXOut_reg[0]/C (clocked by clk_out1_clk_wiz_0) and textMinCursor2ChannelSelected/column_reg[3]/D (clocked by clk_out1_clk_wiz_0). Large setup violations at the end of those stages might be difficult to fix during the post-placement implementation flow and could be the result of non-optimal XDC constraints or non-optimal design architecture
Related violations: <none>

TIMING-16#32 Warning
Large setup violation  
There is a large setup violation of -1.225 ns between myText/displayX1_reg[7]/C (clocked by clk_out1_clk_wiz_0_1) and myText/addressA_reg[1]/CE (clocked by clk_out1_clk_wiz_0). Large setup violations at the end of those stages might be difficult to fix during the post-placement implementation flow and could be the result of non-optimal XDC constraints or non-optimal design architecture
Related violations: <none>

TIMING-16#33 Warning
Large setup violation  
There is a large setup violation of -1.233 ns between cursor2Line/spriteDisplayX_reg[7]__0/C (clocked by clk_out1_clk_wiz_0_1) and myText/column_reg[2]/R (clocked by clk_out1_clk_wiz_0). Large setup violations at the end of those stages might be difficult to fix during the post-placement implementation flow and could be the result of non-optimal XDC constraints or non-optimal design architecture
Related violations: <none>

TIMING-16#34 Warning
Large setup violation  
There is a large setup violation of -1.237 ns between myText/displayX1_reg[2]/C (clocked by clk_out1_clk_wiz_0_1) and myText/addressA_reg[5]/D (clocked by clk_out1_clk_wiz_0). Large setup violations at the end of those stages might be difficult to fix during the post-placement implementation flow and could be the result of non-optimal XDC constraints or non-optimal design architecture
Related violations: <none>

TIMING-16#35 Warning
Large setup violation  
There is a large setup violation of -1.256 ns between myText/displayX1_reg[7]/C (clocked by clk_out1_clk_wiz_0_1) and myText/addressA_reg[8]/CE (clocked by clk_out1_clk_wiz_0). Large setup violations at the end of those stages might be difficult to fix during the post-placement implementation flow and could be the result of non-optimal XDC constraints or non-optimal design architecture
Related violations: <none>

TIMING-16#36 Warning
Large setup violation  
There is a large setup violation of -1.271 ns between myGrid/gridDisplayX_reg[3]/C (clocked by clk_out1_clk_wiz_0_1) and xyc/pixelRows_reg[1][1041]/D (clocked by clk_out1_clk_wiz_0). Large setup violations at the end of those stages might be difficult to fix during the post-placement implementation flow and could be the result of non-optimal XDC constraints or non-optimal design architecture
Related violations: <none>

TIMING-16#37 Warning
Large setup violation  
There is a large setup violation of -1.272 ns between myText/displayX1_reg[2]/C (clocked by clk_out1_clk_wiz_0_1) and myText/addressA_reg[7]/D (clocked by clk_out1_clk_wiz_0). Large setup violations at the end of those stages might be difficult to fix during the post-placement implementation flow and could be the result of non-optimal XDC constraints or non-optimal design architecture
Related violations: <none>

TIMING-16#38 Warning
Large setup violation  
There is a large setup violation of -1.272 ns between myText/displayY1_reg[3]/C (clocked by clk_out1_clk_wiz_0) and myText/addressA_reg[3]/D (clocked by clk_out1_clk_wiz_0). Large setup violations at the end of those stages might be difficult to fix during the post-placement implementation flow and could be the result of non-optimal XDC constraints or non-optimal design architecture
Related violations: <none>

TIMING-16#39 Warning
Large setup violation  
There is a large setup violation of -1.278 ns between myText/displayX4_reg[1]/C (clocked by clk_out1_clk_wiz_0) and myText/pixel_reg[10]/R (clocked by clk_out1_clk_wiz_0). Large setup violations at the end of those stages might be difficult to fix during the post-placement implementation flow and could be the result of non-optimal XDC constraints or non-optimal design architecture
Related violations: <none>

TIMING-16#40 Warning
Large setup violation  
There is a large setup violation of -1.278 ns between myText/displayX4_reg[1]/C (clocked by clk_out1_clk_wiz_0) and myText/pixel_reg[11]/R (clocked by clk_out1_clk_wiz_0). Large setup violations at the end of those stages might be difficult to fix during the post-placement implementation flow and could be the result of non-optimal XDC constraints or non-optimal design architecture
Related violations: <none>

TIMING-16#41 Warning
Large setup violation  
There is a large setup violation of -1.287 ns between cursor2Line/spriteDisplayX_reg[7]__0/C (clocked by clk_out1_clk_wiz_0_1) and myText/row_reg[3]/R (clocked by clk_out1_clk_wiz_0). Large setup violations at the end of those stages might be difficult to fix during the post-placement implementation flow and could be the result of non-optimal XDC constraints or non-optimal design architecture
Related violations: <none>

TIMING-16#42 Warning
Large setup violation  
There is a large setup violation of -1.287 ns between cursor2Line/spriteDisplayX_reg[7]__0/C (clocked by clk_out1_clk_wiz_0_1) and myText/row_reg[4]/R (clocked by clk_out1_clk_wiz_0). Large setup violations at the end of those stages might be difficult to fix during the post-placement implementation flow and could be the result of non-optimal XDC constraints or non-optimal design architecture
Related violations: <none>

TIMING-16#43 Warning
Large setup violation  
There is a large setup violation of -1.300 ns between myText/displayXOut_reg[0]/C (clocked by clk_out1_clk_wiz_0) and textMinCursor2ChannelSelected/row_reg[1]/D (clocked by clk_out1_clk_wiz_0). Large setup violations at the end of those stages might be difficult to fix during the post-placement implementation flow and could be the result of non-optimal XDC constraints or non-optimal design architecture
Related violations: <none>

TIMING-16#44 Warning
Large setup violation  
There is a large setup violation of -1.303 ns between myGrid/gridDisplayX_reg[10]_rep__0/C (clocked by clk_out1_clk_wiz_0) and xyc/pixelRows_reg[0][972]/D (clocked by clk_out1_clk_wiz_0_1). Large setup violations at the end of those stages might be difficult to fix during the post-placement implementation flow and could be the result of non-optimal XDC constraints or non-optimal design architecture
Related violations: <none>

TIMING-16#45 Warning
Large setup violation  
There is a large setup violation of -1.318 ns between myGrid/gridDisplayX_reg[3]/C (clocked by clk_out1_clk_wiz_0_1) and xyc/pixelRows_reg[1][721]/D (clocked by clk_out1_clk_wiz_0). Large setup violations at the end of those stages might be difficult to fix during the post-placement implementation flow and could be the result of non-optimal XDC constraints or non-optimal design architecture
Related violations: <none>

TIMING-16#46 Warning
Large setup violation  
There is a large setup violation of -1.329 ns between cursor2Line/spriteDisplayX_reg[7]__0/C (clocked by clk_out1_clk_wiz_0_1) and myText/column_reg[1]/R (clocked by clk_out1_clk_wiz_0). Large setup violations at the end of those stages might be difficult to fix during the post-placement implementation flow and could be the result of non-optimal XDC constraints or non-optimal design architecture
Related violations: <none>

TIMING-16#47 Warning
Large setup violation  
There is a large setup violation of -1.331 ns between cursor2Line/spriteDisplayX_reg[7]__0/C (clocked by clk_out1_clk_wiz_0_1) and myText/column_reg[0]/R (clocked by clk_out1_clk_wiz_0). Large setup violations at the end of those stages might be difficult to fix during the post-placement implementation flow and could be the result of non-optimal XDC constraints or non-optimal design architecture
Related violations: <none>

TIMING-16#48 Warning
Large setup violation  
There is a large setup violation of -1.343 ns between myText/displayX4_reg[1]/C (clocked by clk_out1_clk_wiz_0) and myText/pixel_reg[1]/R (clocked by clk_out1_clk_wiz_0_1). Large setup violations at the end of those stages might be difficult to fix during the post-placement implementation flow and could be the result of non-optimal XDC constraints or non-optimal design architecture
Related violations: <none>

TIMING-16#49 Warning
Large setup violation  
There is a large setup violation of -1.343 ns between myText/displayX4_reg[1]/C (clocked by clk_out1_clk_wiz_0) and myText/pixel_reg[4]/S (clocked by clk_out1_clk_wiz_0_1). Large setup violations at the end of those stages might be difficult to fix during the post-placement implementation flow and could be the result of non-optimal XDC constraints or non-optimal design architecture
Related violations: <none>

TIMING-16#50 Warning
Large setup violation  
There is a large setup violation of -1.343 ns between myText/displayX4_reg[1]/C (clocked by clk_out1_clk_wiz_0) and myText/pixel_reg[5]/S (clocked by clk_out1_clk_wiz_0_1). Large setup violations at the end of those stages might be difficult to fix during the post-placement implementation flow and could be the result of non-optimal XDC constraints or non-optimal design architecture
Related violations: <none>

TIMING-16#51 Warning
Large setup violation  
There is a large setup violation of -1.343 ns between myText/displayX4_reg[1]/C (clocked by clk_out1_clk_wiz_0) and myText/pixel_reg[6]/S (clocked by clk_out1_clk_wiz_0_1). Large setup violations at the end of those stages might be difficult to fix during the post-placement implementation flow and could be the result of non-optimal XDC constraints or non-optimal design architecture
Related violations: <none>

TIMING-16#52 Warning
Large setup violation  
There is a large setup violation of -1.349 ns between cursor2Line/spriteDisplayX_reg[7]__0/C (clocked by clk_out1_clk_wiz_0_1) and myText/row_reg[2]/R (clocked by clk_out1_clk_wiz_0). Large setup violations at the end of those stages might be difficult to fix during the post-placement implementation flow and could be the result of non-optimal XDC constraints or non-optimal design architecture
Related violations: <none>

TIMING-16#53 Warning
Large setup violation  
There is a large setup violation of -1.372 ns between cursor2Line/spriteDisplayX_reg[7]__0/C (clocked by clk_out1_clk_wiz_0_1) and myText/row_reg[0]/R (clocked by clk_out1_clk_wiz_0). Large setup violations at the end of those stages might be difficult to fix during the post-placement implementation flow and could be the result of non-optimal XDC constraints or non-optimal design architecture
Related violations: <none>

TIMING-16#54 Warning
Large setup violation  
There is a large setup violation of -1.372 ns between cursor2Line/spriteDisplayX_reg[7]__0/C (clocked by clk_out1_clk_wiz_0_1) and myText/row_reg[1]/R (clocked by clk_out1_clk_wiz_0). Large setup violations at the end of those stages might be difficult to fix during the post-placement implementation flow and could be the result of non-optimal XDC constraints or non-optimal design architecture
Related violations: <none>

TIMING-16#55 Warning
Large setup violation  
There is a large setup violation of -1.391 ns between myText/displayX1_reg[2]/C (clocked by clk_out1_clk_wiz_0_1) and myText/addressA_reg[0]/D (clocked by clk_out1_clk_wiz_0). Large setup violations at the end of those stages might be difficult to fix during the post-placement implementation flow and could be the result of non-optimal XDC constraints or non-optimal design architecture
Related violations: <none>

TIMING-16#56 Warning
Large setup violation  
There is a large setup violation of -1.402 ns between myText/displayX4_reg[1]/C (clocked by clk_out1_clk_wiz_0) and myText/pixel_reg[8]/R (clocked by clk_out1_clk_wiz_0_1). Large setup violations at the end of those stages might be difficult to fix during the post-placement implementation flow and could be the result of non-optimal XDC constraints or non-optimal design architecture
Related violations: <none>

TIMING-16#57 Warning
Large setup violation  
There is a large setup violation of -1.402 ns between myText/displayX4_reg[1]/C (clocked by clk_out1_clk_wiz_0) and myText/pixel_reg[9]/R (clocked by clk_out1_clk_wiz_0_1). Large setup violations at the end of those stages might be difficult to fix during the post-placement implementation flow and could be the result of non-optimal XDC constraints or non-optimal design architecture
Related violations: <none>

TIMING-16#58 Warning
Large setup violation  
There is a large setup violation of -1.442 ns between myText/displayX1_reg[1]/C (clocked by clk_out1_clk_wiz_0_1) and myText/addressA_reg[6]/D (clocked by clk_out1_clk_wiz_0). Large setup violations at the end of those stages might be difficult to fix during the post-placement implementation flow and could be the result of non-optimal XDC constraints or non-optimal design architecture
Related violations: <none>

TIMING-16#59 Warning
Large setup violation  
There is a large setup violation of -1.450 ns between myText/displayX4_reg[1]/C (clocked by clk_out1_clk_wiz_0) and myText/pixel_reg[2]/R (clocked by clk_out1_clk_wiz_0). Large setup violations at the end of those stages might be difficult to fix during the post-placement implementation flow and could be the result of non-optimal XDC constraints or non-optimal design architecture
Related violations: <none>

TIMING-16#60 Warning
Large setup violation  
There is a large setup violation of -1.469 ns between myGrid/gridDisplayX_reg[10]_rep__0/C (clocked by clk_out1_clk_wiz_0) and xyc/pixelRows_reg[0][747]/D (clocked by clk_out1_clk_wiz_0_1). Large setup violations at the end of those stages might be difficult to fix during the post-placement implementation flow and could be the result of non-optimal XDC constraints or non-optimal design architecture
Related violations: <none>

TIMING-16#61 Warning
Large setup violation  
There is a large setup violation of -1.486 ns between myText/displayX4_reg[1]/C (clocked by clk_out1_clk_wiz_0) and myText/pixel_reg[0]/R (clocked by clk_out1_clk_wiz_0_1). Large setup violations at the end of those stages might be difficult to fix during the post-placement implementation flow and could be the result of non-optimal XDC constraints or non-optimal design architecture
Related violations: <none>

TIMING-16#62 Warning
Large setup violation  
There is a large setup violation of -1.486 ns between myText/displayX4_reg[1]/C (clocked by clk_out1_clk_wiz_0) and myText/pixel_reg[3]/R (clocked by clk_out1_clk_wiz_0_1). Large setup violations at the end of those stages might be difficult to fix during the post-placement implementation flow and could be the result of non-optimal XDC constraints or non-optimal design architecture
Related violations: <none>

TIMING-16#63 Warning
Large setup violation  
There is a large setup violation of -1.486 ns between myText/displayX4_reg[1]/C (clocked by clk_out1_clk_wiz_0) and myText/pixel_reg[7]/S (clocked by clk_out1_clk_wiz_0_1). Large setup violations at the end of those stages might be difficult to fix during the post-placement implementation flow and could be the result of non-optimal XDC constraints or non-optimal design architecture
Related violations: <none>

TIMING-16#64 Warning
Large setup violation  
There is a large setup violation of -1.514 ns between BufferChannel2/dataOut_reg[3]/C (clocked by clk_out1_clk_wiz_0_1) and curveChannel2/pixelOn_reg/D (clocked by clk_out1_clk_wiz_0). Large setup violations at the end of those stages might be difficult to fix during the post-placement implementation flow and could be the result of non-optimal XDC constraints or non-optimal design architecture
Related violations: <none>

TIMING-16#65 Warning
Large setup violation  
There is a large setup violation of -1.527 ns between myText/displayXOut_reg[0]/C (clocked by clk_out1_clk_wiz_0) and textMinCursor2ChannelSelected/column_reg[4]/D (clocked by clk_out1_clk_wiz_0). Large setup violations at the end of those stages might be difficult to fix during the post-placement implementation flow and could be the result of non-optimal XDC constraints or non-optimal design architecture
Related violations: <none>

TIMING-16#66 Warning
Large setup violation  
There is a large setup violation of -1.528 ns between myGrid/gridDisplayX_reg[10]_rep__0/C (clocked by clk_out1_clk_wiz_0) and xyc/pixelRows_reg[1][972]/D (clocked by clk_out1_clk_wiz_0). Large setup violations at the end of those stages might be difficult to fix during the post-placement implementation flow and could be the result of non-optimal XDC constraints or non-optimal design architecture
Related violations: <none>

TIMING-16#67 Warning
Large setup violation  
There is a large setup violation of -1.530 ns between myGrid/gridDisplayX_reg[10]_rep__0/C (clocked by clk_out1_clk_wiz_0) and xyc/pixelRows_reg[1][619]/D (clocked by clk_out1_clk_wiz_0_1). Large setup violations at the end of those stages might be difficult to fix during the post-placement implementation flow and could be the result of non-optimal XDC constraints or non-optimal design architecture
Related violations: <none>

TIMING-16#68 Warning
Large setup violation  
There is a large setup violation of -1.563 ns between myGrid/gridDisplayX_reg[3]/C (clocked by clk_out1_clk_wiz_0_1) and xyc/pixelRows_reg[1][1105]/D (clocked by clk_out1_clk_wiz_0). Large setup violations at the end of those stages might be difficult to fix during the post-placement implementation flow and could be the result of non-optimal XDC constraints or non-optimal design architecture
Related violations: <none>

TIMING-16#69 Warning
Large setup violation  
There is a large setup violation of -1.566 ns between myGrid/gridDisplayX_reg[3]/C (clocked by clk_out1_clk_wiz_0_1) and xyc/pixelRows_reg[0][1105]/D (clocked by clk_out1_clk_wiz_0). Large setup violations at the end of those stages might be difficult to fix during the post-placement implementation flow and could be the result of non-optimal XDC constraints or non-optimal design architecture
Related violations: <none>

TIMING-16#70 Warning
Large setup violation  
There is a large setup violation of -1.634 ns between myGrid/gridDisplayX_reg[3]/C (clocked by clk_out1_clk_wiz_0_1) and xyc/pixelRows_reg[0][721]/D (clocked by clk_out1_clk_wiz_0). Large setup violations at the end of those stages might be difficult to fix during the post-placement implementation flow and could be the result of non-optimal XDC constraints or non-optimal design architecture
Related violations: <none>

TIMING-16#71 Warning
Large setup violation  
There is a large setup violation of -1.677 ns between myText/displayXOut_reg[0]/C (clocked by clk_out1_clk_wiz_0) and textMinCursor2ChannelSelected/row_reg[3]/D (clocked by clk_out1_clk_wiz_0). Large setup violations at the end of those stages might be difficult to fix during the post-placement implementation flow and could be the result of non-optimal XDC constraints or non-optimal design architecture
Related violations: <none>

TIMING-16#72 Warning
Large setup violation  
There is a large setup violation of -1.684 ns between myText/displayXOut_reg[0]/C (clocked by clk_out1_clk_wiz_0) and textMinCursor2ChannelSelected/row_reg[4]/D (clocked by clk_out1_clk_wiz_0). Large setup violations at the end of those stages might be difficult to fix during the post-placement implementation flow and could be the result of non-optimal XDC constraints or non-optimal design architecture
Related violations: <none>

TIMING-16#73 Warning
Large setup violation  
There is a large setup violation of -1.691 ns between cursor2Line/spriteDisplayY_reg[1]/C (clocked by clk_out1_clk_wiz_0_1) and myText/row_reg[0]/D (clocked by clk_out1_clk_wiz_0). Large setup violations at the end of those stages might be difficult to fix during the post-placement implementation flow and could be the result of non-optimal XDC constraints or non-optimal design architecture
Related violations: <none>

TIMING-16#74 Warning
Large setup violation  
There is a large setup violation of -1.691 ns between myText/displayXOut_reg[0]/C (clocked by clk_out1_clk_wiz_0) and textMinCursor2ChannelSelected/row_reg[2]/D (clocked by clk_out1_clk_wiz_0). Large setup violations at the end of those stages might be difficult to fix during the post-placement implementation flow and could be the result of non-optimal XDC constraints or non-optimal design architecture
Related violations: <none>

TIMING-16#75 Warning
Large setup violation  
There is a large setup violation of -1.694 ns between myGrid/gridDisplayX_reg[3]/C (clocked by clk_out1_clk_wiz_0_1) and xyc/pixelRows_reg[1][657]/D (clocked by clk_out1_clk_wiz_0). Large setup violations at the end of those stages might be difficult to fix during the post-placement implementation flow and could be the result of non-optimal XDC constraints or non-optimal design architecture
Related violations: <none>

TIMING-16#76 Warning
Large setup violation  
There is a large setup violation of -1.841 ns between myGrid/gridDisplayX_reg[10]_rep__0/C (clocked by clk_out1_clk_wiz_0) and xyc/pixelRows_reg[1][908]/D (clocked by clk_out1_clk_wiz_0_1). Large setup violations at the end of those stages might be difficult to fix during the post-placement implementation flow and could be the result of non-optimal XDC constraints or non-optimal design architecture
Related violations: <none>

TIMING-16#77 Warning
Large setup violation  
There is a large setup violation of -2.007 ns between myGrid/gridDisplayX_reg[3]/C (clocked by clk_out1_clk_wiz_0_1) and xyc/pixelRows_reg[0][657]/D (clocked by clk_out1_clk_wiz_0). Large setup violations at the end of those stages might be difficult to fix during the post-placement implementation flow and could be the result of non-optimal XDC constraints or non-optimal design architecture
Related violations: <none>

TIMING-16#78 Warning
Large setup violation  
There is a large setup violation of -2.252 ns between cursor2Line/spriteDisplayX_reg[3]__0/C (clocked by clk_out1_clk_wiz_0_1) and myText/column_reg[0]/D (clocked by clk_out1_clk_wiz_0). Large setup violations at the end of those stages might be difficult to fix during the post-placement implementation flow and could be the result of non-optimal XDC constraints or non-optimal design architecture
Related violations: <none>

TIMING-16#79 Warning
Large setup violation  
There is a large setup violation of -2.339 ns between cursor2Line/spriteDisplayX_reg[3]__0/C (clocked by clk_out1_clk_wiz_0_1) and myText/column_reg[1]/D (clocked by clk_out1_clk_wiz_0). Large setup violations at the end of those stages might be difficult to fix during the post-placement implementation flow and could be the result of non-optimal XDC constraints or non-optimal design architecture
Related violations: <none>

TIMING-16#80 Warning
Large setup violation  
There is a large setup violation of -2.485 ns between cursor2Line/spriteDisplayX_reg[5]__0/C (clocked by clk_out1_clk_wiz_0_1) and myText/row_reg[1]/D (clocked by clk_out1_clk_wiz_0). Large setup violations at the end of those stages might be difficult to fix during the post-placement implementation flow and could be the result of non-optimal XDC constraints or non-optimal design architecture
Related violations: <none>

TIMING-16#81 Warning
Large setup violation  
There is a large setup violation of -2.685 ns between cursor2Line/spriteDisplayX_reg[3]__0/C (clocked by clk_out1_clk_wiz_0_1) and myText/column_reg[3]/D (clocked by clk_out1_clk_wiz_0). Large setup violations at the end of those stages might be difficult to fix during the post-placement implementation flow and could be the result of non-optimal XDC constraints or non-optimal design architecture
Related violations: <none>

TIMING-16#82 Warning
Large setup violation  
There is a large setup violation of -2.714 ns between BufferChannel1/dataOut_reg[2]/C (clocked by clk_out1_clk_wiz_0_1) and curveChannel1/pixelOn_reg/D (clocked by clk_out1_clk_wiz_0). Large setup violations at the end of those stages might be difficult to fix during the post-placement implementation flow and could be the result of non-optimal XDC constraints or non-optimal design architecture
Related violations: <none>

TIMING-16#83 Warning
Large setup violation  
There is a large setup violation of -2.863 ns between cursor2Line/spriteDisplayX_reg[3]__0/C (clocked by clk_out1_clk_wiz_0_1) and myText/column_reg[4]/D (clocked by clk_out1_clk_wiz_0). Large setup violations at the end of those stages might be difficult to fix during the post-placement implementation flow and could be the result of non-optimal XDC constraints or non-optimal design architecture
Related violations: <none>

TIMING-16#84 Warning
Large setup violation  
There is a large setup violation of -2.952 ns between cursor2Line/spriteDisplayX_reg[3]__0/C (clocked by clk_out1_clk_wiz_0_1) and myText/row_reg[4]/D (clocked by clk_out1_clk_wiz_0). Large setup violations at the end of those stages might be difficult to fix during the post-placement implementation flow and could be the result of non-optimal XDC constraints or non-optimal design architecture
Related violations: <none>

TIMING-16#85 Warning
Large setup violation  
There is a large setup violation of -2.958 ns between cursor2Line/spriteDisplayX_reg[3]__0/C (clocked by clk_out1_clk_wiz_0_1) and myText/row_reg[3]/D (clocked by clk_out1_clk_wiz_0). Large setup violations at the end of those stages might be difficult to fix during the post-placement implementation flow and could be the result of non-optimal XDC constraints or non-optimal design architecture
Related violations: <none>

TIMING-16#86 Warning
Large setup violation  
There is a large setup violation of -23.674 ns between myMeasureSignalChannel2/signalMax_reg[0]/C (clocked by clk_out1_clk_wiz_0_1) and myss/verticalScaleFactorTimes8Channel2_reg[6]/D (clocked by clk_out1_clk_wiz_0). Large setup violations at the end of those stages might be difficult to fix during the post-placement implementation flow and could be the result of non-optimal XDC constraints or non-optimal design architecture
Related violations: <none>

TIMING-16#87 Warning
Large setup violation  
There is a large setup violation of -23.677 ns between myMeasureSignalChannel2/signalMax_reg[0]/C (clocked by clk_out1_clk_wiz_0_1) and myss/verticalScaleFactorTimes8Channel2_reg[7]/D (clocked by clk_out1_clk_wiz_0). Large setup violations at the end of those stages might be difficult to fix during the post-placement implementation flow and could be the result of non-optimal XDC constraints or non-optimal design architecture
Related violations: <none>

TIMING-16#88 Warning
Large setup violation  
There is a large setup violation of -23.683 ns between myMeasureSignalChannel2/signalMax_reg[0]/C (clocked by clk_out1_clk_wiz_0_1) and myss/verticalScaleFactorTimes8Channel2_reg[4]/D (clocked by clk_out1_clk_wiz_0). Large setup violations at the end of those stages might be difficult to fix during the post-placement implementation flow and could be the result of non-optimal XDC constraints or non-optimal design architecture
Related violations: <none>

TIMING-16#89 Warning
Large setup violation  
There is a large setup violation of -23.685 ns between myMeasureSignalChannel2/signalMax_reg[0]/C (clocked by clk_out1_clk_wiz_0_1) and myss/verticalScaleFactorTimes8Channel2_reg[0]/D (clocked by clk_out1_clk_wiz_0). Large setup violations at the end of those stages might be difficult to fix during the post-placement implementation flow and could be the result of non-optimal XDC constraints or non-optimal design architecture
Related violations: <none>

TIMING-16#90 Warning
Large setup violation  
There is a large setup violation of -23.721 ns between myMeasureSignalChannel2/signalMax_reg[0]/C (clocked by clk_out1_clk_wiz_0_1) and myss/verticalScaleFactorTimes8Channel2_reg[3]/D (clocked by clk_out1_clk_wiz_0). Large setup violations at the end of those stages might be difficult to fix during the post-placement implementation flow and could be the result of non-optimal XDC constraints or non-optimal design architecture
Related violations: <none>

TIMING-16#91 Warning
Large setup violation  
There is a large setup violation of -23.742 ns between myMeasureSignalChannel1/signalMin_reg[3]/C (clocked by clk_out1_clk_wiz_0_1) and myss/verticalScaleFactorTimes8Channel1_reg[4]/D (clocked by clk_out1_clk_wiz_0). Large setup violations at the end of those stages might be difficult to fix during the post-placement implementation flow and could be the result of non-optimal XDC constraints or non-optimal design architecture
Related violations: <none>

TIMING-16#92 Warning
Large setup violation  
There is a large setup violation of -23.753 ns between myMeasureSignalChannel1/signalMin_reg[3]/C (clocked by clk_out1_clk_wiz_0_1) and myss/verticalScaleFactorTimes8Channel1_reg[5]_lopt_replica/D (clocked by clk_out1_clk_wiz_0). Large setup violations at the end of those stages might be difficult to fix during the post-placement implementation flow and could be the result of non-optimal XDC constraints or non-optimal design architecture
Related violations: <none>

TIMING-16#93 Warning
Large setup violation  
There is a large setup violation of -23.768 ns between myMeasureSignalChannel2/signalMax_reg[0]/C (clocked by clk_out1_clk_wiz_0_1) and myss/verticalScaleFactorTimes8Channel2_reg[5]/D (clocked by clk_out1_clk_wiz_0). Large setup violations at the end of those stages might be difficult to fix during the post-placement implementation flow and could be the result of non-optimal XDC constraints or non-optimal design architecture
Related violations: <none>

TIMING-16#94 Warning
Large setup violation  
There is a large setup violation of -23.784 ns between myMeasureSignalChannel2/signalMax_reg[0]/C (clocked by clk_out1_clk_wiz_0_1) and myss/verticalScaleFactorTimes8Channel2_reg[8]/D (clocked by clk_out1_clk_wiz_0). Large setup violations at the end of those stages might be difficult to fix during the post-placement implementation flow and could be the result of non-optimal XDC constraints or non-optimal design architecture
Related violations: <none>

TIMING-16#95 Warning
Large setup violation  
There is a large setup violation of -23.799 ns between myMeasureSignalChannel2/signalMax_reg[0]/C (clocked by clk_out1_clk_wiz_0_1) and myss/verticalScaleFactorTimes8Channel2_reg[2]/D (clocked by clk_out1_clk_wiz_0). Large setup violations at the end of those stages might be difficult to fix during the post-placement implementation flow and could be the result of non-optimal XDC constraints or non-optimal design architecture
Related violations: <none>

TIMING-16#96 Warning
Large setup violation  
There is a large setup violation of -23.843 ns between myMeasureSignalChannel1/signalMin_reg[3]/C (clocked by clk_out1_clk_wiz_0_1) and myss/verticalScaleFactorTimes8Channel1_reg[0]/D (clocked by clk_out1_clk_wiz_0). Large setup violations at the end of those stages might be difficult to fix during the post-placement implementation flow and could be the result of non-optimal XDC constraints or non-optimal design architecture
Related violations: <none>

TIMING-16#97 Warning
Large setup violation  
There is a large setup violation of -23.847 ns between myMeasureSignalChannel1/signalMin_reg[3]/C (clocked by clk_out1_clk_wiz_0_1) and myss/verticalScaleFactorTimes8Channel1_reg[9]_lopt_replica/D (clocked by clk_out1_clk_wiz_0). Large setup violations at the end of those stages might be difficult to fix during the post-placement implementation flow and could be the result of non-optimal XDC constraints or non-optimal design architecture
Related violations: <none>

TIMING-16#98 Warning
Large setup violation  
There is a large setup violation of -23.887 ns between myMeasureSignalChannel2/signalMax_reg[0]/C (clocked by clk_out1_clk_wiz_0_1) and myss/verticalScaleFactorTimes8Channel2_reg[9]/D (clocked by clk_out1_clk_wiz_0). Large setup violations at the end of those stages might be difficult to fix during the post-placement implementation flow and could be the result of non-optimal XDC constraints or non-optimal design architecture
Related violations: <none>

TIMING-16#99 Warning
Large setup violation  
There is a large setup violation of -23.929 ns between myMeasureSignalChannel1/signalMin_reg[3]/C (clocked by clk_out1_clk_wiz_0_1) and myss/verticalScaleFactorTimes8Channel1_reg[8]/D (clocked by clk_out1_clk_wiz_0). Large setup violations at the end of those stages might be difficult to fix during the post-placement implementation flow and could be the result of non-optimal XDC constraints or non-optimal design architecture
Related violations: <none>

TIMING-16#100 Warning
Large setup violation  
There is a large setup violation of -23.929 ns between myMeasureSignalChannel1/signalMin_reg[3]/C (clocked by clk_out1_clk_wiz_0_1) and myss/verticalScaleFactorTimes8Channel1_reg[8]_lopt_replica/D (clocked by clk_out1_clk_wiz_0). Large setup violations at the end of those stages might be difficult to fix during the post-placement implementation flow and could be the result of non-optimal XDC constraints or non-optimal design architecture
Related violations: <none>

TIMING-16#101 Warning
Large setup violation  
There is a large setup violation of -23.931 ns between myMeasureSignalChannel1/signalMin_reg[3]/C (clocked by clk_out1_clk_wiz_0_1) and myss/verticalScaleFactorTimes8Channel1_reg[1]/D (clocked by clk_out1_clk_wiz_0). Large setup violations at the end of those stages might be difficult to fix during the post-placement implementation flow and could be the result of non-optimal XDC constraints or non-optimal design architecture
Related violations: <none>

TIMING-16#102 Warning
Large setup violation  
There is a large setup violation of -23.971 ns between myMeasureSignalChannel1/signalMin_reg[3]/C (clocked by clk_out1_clk_wiz_0_1) and myss/verticalScaleFactorTimes8Channel1_reg[6]/D (clocked by clk_out1_clk_wiz_0). Large setup violations at the end of those stages might be difficult to fix during the post-placement implementation flow and could be the result of non-optimal XDC constraints or non-optimal design architecture
Related violations: <none>

TIMING-16#103 Warning
Large setup violation  
There is a large setup violation of -23.977 ns between myMeasureSignalChannel1/signalMin_reg[3]/C (clocked by clk_out1_clk_wiz_0_1) and myss/verticalScaleFactorTimes8Channel1_reg[6]_lopt_replica/D (clocked by clk_out1_clk_wiz_0). Large setup violations at the end of those stages might be difficult to fix during the post-placement implementation flow and could be the result of non-optimal XDC constraints or non-optimal design architecture
Related violations: <none>

TIMING-16#104 Warning
Large setup violation  
There is a large setup violation of -23.985 ns between myMeasureSignalChannel1/signalMin_reg[3]/C (clocked by clk_out1_clk_wiz_0_1) and myss/verticalScaleFactorTimes8Channel1_reg[7]/D (clocked by clk_out1_clk_wiz_0). Large setup violations at the end of those stages might be difficult to fix during the post-placement implementation flow and could be the result of non-optimal XDC constraints or non-optimal design architecture
Related violations: <none>

TIMING-16#105 Warning
Large setup violation  
There is a large setup violation of -23.985 ns between myMeasureSignalChannel1/signalMin_reg[3]/C (clocked by clk_out1_clk_wiz_0_1) and myss/verticalScaleFactorTimes8Channel1_reg[7]_lopt_replica/D (clocked by clk_out1_clk_wiz_0). Large setup violations at the end of those stages might be difficult to fix during the post-placement implementation flow and could be the result of non-optimal XDC constraints or non-optimal design architecture
Related violations: <none>

TIMING-16#106 Warning
Large setup violation  
There is a large setup violation of -24.020 ns between myMeasureSignalChannel1/signalMin_reg[3]/C (clocked by clk_out1_clk_wiz_0_1) and myss/verticalScaleFactorTimes8Channel1_reg[4]_lopt_replica/D (clocked by clk_out1_clk_wiz_0). Large setup violations at the end of those stages might be difficult to fix during the post-placement implementation flow and could be the result of non-optimal XDC constraints or non-optimal design architecture
Related violations: <none>

TIMING-16#107 Warning
Large setup violation  
There is a large setup violation of -24.022 ns between myMeasureSignalChannel2/signalMax_reg[0]/C (clocked by clk_out1_clk_wiz_0_1) and myss/verticalScaleFactorTimes8Channel2_reg[1]/D (clocked by clk_out1_clk_wiz_0). Large setup violations at the end of those stages might be difficult to fix during the post-placement implementation flow and could be the result of non-optimal XDC constraints or non-optimal design architecture
Related violations: <none>

TIMING-16#108 Warning
Large setup violation  
There is a large setup violation of -24.053 ns between myMeasureSignalChannel1/signalMin_reg[3]/C (clocked by clk_out1_clk_wiz_0_1) and myss/verticalScaleFactorTimes8Channel1_reg[3]/D (clocked by clk_out1_clk_wiz_0). Large setup violations at the end of those stages might be difficult to fix during the post-placement implementation flow and could be the result of non-optimal XDC constraints or non-optimal design architecture
Related violations: <none>

TIMING-16#109 Warning
Large setup violation  
There is a large setup violation of -24.060 ns between myMeasureSignalChannel1/signalMin_reg[3]/C (clocked by clk_out1_clk_wiz_0_1) and myss/verticalScaleFactorTimes8Channel1_reg[5]/D (clocked by clk_out1_clk_wiz_0). Large setup violations at the end of those stages might be difficult to fix during the post-placement implementation flow and could be the result of non-optimal XDC constraints or non-optimal design architecture
Related violations: <none>

TIMING-16#110 Warning
Large setup violation  
There is a large setup violation of -24.081 ns between myMeasureSignalChannel1/signalMin_reg[3]/C (clocked by clk_out1_clk_wiz_0_1) and myss/verticalScaleFactorTimes8Channel1_reg[3]_lopt_replica/D (clocked by clk_out1_clk_wiz_0). Large setup violations at the end of those stages might be difficult to fix during the post-placement implementation flow and could be the result of non-optimal XDC constraints or non-optimal design architecture
Related violations: <none>

TIMING-16#111 Warning
Large setup violation  
There is a large setup violation of -24.147 ns between myMeasureSignalChannel1/signalMin_reg[3]/C (clocked by clk_out1_clk_wiz_0_1) and myss/verticalScaleFactorTimes8Channel1_reg[9]/D (clocked by clk_out1_clk_wiz_0). Large setup violations at the end of those stages might be difficult to fix during the post-placement implementation flow and could be the result of non-optimal XDC constraints or non-optimal design architecture
Related violations: <none>

TIMING-16#112 Warning
Large setup violation  
There is a large setup violation of -24.222 ns between myMeasureSignalChannel1/signalMin_reg[3]/C (clocked by clk_out1_clk_wiz_0_1) and myss/verticalScaleFactorTimes8Channel1_reg[2]/D (clocked by clk_out1_clk_wiz_0). Large setup violations at the end of those stages might be difficult to fix during the post-placement implementation flow and could be the result of non-optimal XDC constraints or non-optimal design architecture
Related violations: <none>

TIMING-16#113 Warning
Large setup violation  
There is a large setup violation of -3.562 ns between cursor2Line/spriteDisplayX_reg[5]__0/C (clocked by clk_out1_clk_wiz_0_1) and myText/row_reg[2]/D (clocked by clk_out1_clk_wiz_0). Large setup violations at the end of those stages might be difficult to fix during the post-placement implementation flow and could be the result of non-optimal XDC constraints or non-optimal design architecture
Related violations: <none>

TIMING-16#114 Warning
Large setup violation  
There is a large setup violation of -3.747 ns between cursor2Line/spriteDisplayX_reg[3]__0/C (clocked by clk_out1_clk_wiz_0_1) and myText/column_reg[2]/D (clocked by clk_out1_clk_wiz_0). Large setup violations at the end of those stages might be difficult to fix during the post-placement implementation flow and could be the result of non-optimal XDC constraints or non-optimal design architecture
Related violations: <none>


